<?xml version="1.0" encoding="UTF-8" standalone="no"?>
<svg
   xmlns:dc="http://purl.org/dc/elements/1.1/"
   xmlns:cc="http://creativecommons.org/ns#"
   xmlns:rdf="http://www.w3.org/1999/02/22-rdf-syntax-ns#"
   xmlns:svg="http://www.w3.org/2000/svg"
   xmlns="http://www.w3.org/2000/svg"
   xmlns:sodipodi="http://sodipodi.sourceforge.net/DTD/sodipodi-0.dtd"
   xmlns:inkscape="http://www.inkscape.org/namespaces/inkscape"
   version="1.0"
   width="63.999977"
   height="63.999977"
   viewBox="0 0 47.999982 47.999983"
   preserveAspectRatio="xMidYMid meet"
   id="svg10"
   sodipodi:docname="lexon-logo-red-64.svg"
   inkscape:version="0.92.2 5c3e80d, 2017-08-06">
  <defs
     id="defs14" />
  <sodipodi:namedview
     pagecolor="#ffffff"
     bordercolor="#666666"
     borderopacity="1"
     objecttolerance="10"
     gridtolerance="10"
     guidetolerance="10"
     inkscape:pageopacity="0"
     inkscape:pageshadow="2"
     inkscape:window-width="1067"
     inkscape:window-height="714"
     id="namedview12"
     showgrid="false"
     inkscape:zoom="1"
     inkscape:cx="31.999997"
     inkscape:cy="31.999998"
     inkscape:window-x="0"
     inkscape:window-y="0"
     inkscape:window-maximized="0"
     inkscape:current-layer="svg10"
     units="px"
     fit-margin-top="0"
     fit-margin-left="0"
     fit-margin-right="0"
     fit-margin-bottom="0" />
  <metadata
     id="metadata2">
Created by potrace 1.15, written by Peter Selinger 2001-2017
<rdf:RDF>
  <cc:Work
     rdf:about="">
    <dc:format>image/svg+xml</dc:format>
    <dc:type
       rdf:resource="http://purl.org/dc/dcmitype/StillImage" />
    <dc:title></dc:title>
  </cc:Work>
</rdf:RDF>
</metadata>
  <g
     transform="matrix(0.01088435,0,0,-0.01088435,0,47.999983)"
     id="g8"
     style="fill:#a20000;fill-opacity:1;stroke:none">
    <path
       d="m 1942,4333 c -11,-43 -26,-103 -32,-133 -6,-30 -14,-60 -18,-66 -4,-6 -45,-19 -92,-28 -47,-10 -128,-32 -180,-48 l -94,-30 -103,107 c -59,62 -108,105 -116,102 -18,-7 -400,-227 -409,-236 -4,-3 10,-65 32,-136 22,-72 40,-135 40,-142 0,-6 -60,-71 -132,-145 l -133,-134 -60,18 c -33,10 -97,29 -143,42 l -82,24 -56,-97 c -31,-53 -80,-136 -109,-186 -94,-158 -97,-132 29,-250 l 108,-102 -30,-95 c -17,-52 -39,-133 -49,-181 l -17,-87 -51,-13 c -27,-8 -94,-24 -147,-37 L 0,2457 v -248 -247 l 93,-22 c 50,-12 116,-27 146,-34 l 54,-13 24,-104 c 12,-57 35,-139 49,-183 l 27,-79 -107,-99 c -58,-55 -106,-106 -106,-113 0,-12 224,-402 238,-416 4,-4 70,12 146,35 l 139,42 136,-135 c 74,-75 134,-140 133,-146 -1,-5 -19,-68 -41,-140 -22,-72 -36,-133 -33,-137 14,-13 406,-238 416,-238 6,0 56,48 111,106 l 100,107 85,-27 c 47,-15 130,-38 185,-50 94,-21 99,-24 106,-52 4,-16 19,-82 34,-146 L 1962,0 h 247 247 l 35,147 34,147 95,21 c 52,12 135,34 184,50 l 88,29 102,-108 c 55,-58 105,-106 110,-106 24,1 416,237 416,250 0,8 -18,73 -39,144 l -38,130 136,136 136,136 142,-42 142,-42 62,107 c 34,58 88,151 120,207 33,55 59,103 59,107 0,4 -48,53 -107,110 l -107,104 29,89 c 16,49 38,132 49,184 l 21,94 143,34 142,34 v 248 248 l -142,34 -142,34 -26,109 c -15,61 -37,143 -51,184 l -24,74 108,102 c 59,56 107,105 107,108 0,5 -183,329 -236,418 -4,7 -70,-10 -210,-54 l -82,-25 -94,97 c -52,53 -113,113 -136,133 l -41,37 39,132 c 22,73 40,140 40,148 0,11 -69,56 -192,126 -105,61 -200,114 -211,120 -17,8 -34,-5 -123,-99 l -102,-109 -74,23 c -40,13 -122,35 -183,50 l -109,26 -34,142 -34,142 h -248 -248 z m 583,-441 c 517,-99 972,-445 1204,-915 127,-257 176,-470 176,-762 0,-215 -21,-355 -81,-533 -91,-274 -219,-479 -424,-682 C 3212,814 2994,681 2737,595 2572,541 2455,520 2260,513 1540,487 887,912 620,1580 c -87,219 -114,362 -114,625 -1,273 24,410 119,655 133,340 415,659 743,842 207,115 371,168 667,212 72,11 393,-4 490,-22 z"
       id="path4"
       style="fill:#a20000;fill-opacity:1"
       inkscape:connector-curvature="0" />
    <path
       d="m 2100,3744 c -419,-51 -720,-192 -982,-458 -220,-223 -367,-508 -424,-822 -24,-133 -24,-374 -1,-503 62,-336 203,-610 433,-838 295,-293 667,-446 1084,-447 419,0 793,156 1090,454 291,293 443,664 444,1080 0,246 -52,465 -164,687 -253,507 -760,829 -1330,848 -63,2 -131,1 -150,-1 z m 377,-104 c 252,-50 426,-130 628,-286 120,-92 252,-236 330,-359 37,-58 97,-171 112,-210 89,-239 113,-358 113,-575 0,-340 -97,-625 -306,-895 -101,-131 -297,-306 -360,-321 -16,-3 -64,-22 -107,-41 -103,-46 -137,-43 -156,12 -34,102 -20,460 22,544 l 15,31 -36,9 c -106,28 -263,40 -292,21 -23,-15 7,-63 105,-169 48,-51 93,-108 101,-127 18,-43 18,-109 -1,-209 -9,-44 -18,-119 -22,-167 -7,-99 8,-87 -142,-118 -128,-27 -179,-27 -190,3 -5,12 -4,33 1,46 14,37 -6,72 -61,108 -72,47 -196,212 -270,360 -27,55 -53,155 -43,165 5,5 45,-34 91,-86 102,-120 115,-127 140,-86 10,17 33,75 51,128 37,109 36,131 -7,183 -35,41 -153,129 -221,163 -56,29 -71,49 -55,75 18,28 68,51 233,106 255,86 441,184 655,345 175,132 229,149 281,88 15,-18 33,-47 41,-65 24,-58 17,-82 -38,-140 -50,-53 -51,-55 -44,-99 6,-44 5,-47 -34,-83 -23,-21 -41,-43 -41,-48 0,-15 77,-83 94,-83 26,0 50,84 41,143 -16,103 -13,113 43,170 29,29 52,61 52,71 0,10 -25,59 -55,109 -59,98 -67,130 -34,147 51,28 55,104 14,223 -41,120 -120,230 -198,277 -41,26 -113,27 -126,2 -22,-41 -323,-195 -371,-190 -21,3 -25,9 -28,40 -4,50 24,102 90,165 78,73 142,103 221,103 69,0 87,10 87,50 -1,67 -69,153 -150,189 -129,57 -418,46 -699,-25 -194,-49 -311,-114 -311,-172 0,-38 -38,-79 -104,-110 -77,-37 -149,-100 -178,-155 -12,-24 -23,-76 -29,-133 -11,-103 -28,-162 -59,-201 -43,-55 -54,-125 -54,-328 0,-146 4,-211 19,-280 27,-133 24,-257 -9,-378 -24,-85 -104,-289 -121,-305 -7,-8 -40,32 -99,119 -106,155 -182,336 -223,529 -34,162 -36,396 -4,558 63,323 219,597 466,822 72,65 226,170 310,212 92,47 249,100 360,124 151,31 416,33 562,4 z m 169,-332 c 62,-32 104,-64 93,-71 -2,-1 -35,-10 -74,-20 -50,-13 -93,-34 -155,-75 -79,-53 -110,-69 -198,-103 -36,-13 -105,-93 -185,-214 -63,-96 -131,-168 -154,-163 -14,3 -18,13 -17,45 1,41 7,52 77,137 43,50 59,114 37,141 -19,22 -38,18 -68,-15 -26,-28 -37,-47 -98,-173 -28,-59 -73,-107 -99,-107 -17,0 -35,31 -35,60 0,93 299,438 455,526 112,62 159,75 260,71 80,-3 98,-7 161,-39 z m -710,-62 c 10,-25 -32,-89 -99,-153 -73,-70 -107,-81 -107,-35 0,84 182,250 206,188 z m 415,-273 c 14,-37 -7,-89 -72,-181 -49,-70 -84,-101 -97,-87 -12,12 -4,98 12,145 9,25 33,69 52,98 30,43 42,52 65,52 23,0 32,-6 40,-27 z m 606,-59 c 24,-15 73,-76 73,-90 0,-6 -17,-27 -39,-48 -49,-48 -132,-74 -269,-85 -109,-8 -135,-19 -112,-46 20,-24 123,-19 237,11 123,33 222,37 252,10 27,-24 27,-50 -1,-88 -51,-72 -197,-104 -448,-98 -322,8 -480,4 -598,-15 -120,-19 -164,-15 -170,18 -4,18 -2,19 184,96 123,50 348,153 478,217 114,57 270,123 312,133 43,10 68,6 101,-15 z M 1669,2659 c 27,-45 45,-167 31,-218 -22,-81 -79,-70 -100,20 -7,28 -10,81 -8,118 8,108 40,142 77,80 z m -176,-217 c 58,-120 66,-159 40,-191 -19,-23 -20,-23 -51,-7 -17,9 -38,29 -46,45 -31,59 -33,287 -2,262 7,-6 33,-55 59,-109 z m 1191,-32 c 33,-5 64,-14 70,-20 19,-19 -28,-64 -133,-127 -57,-34 -136,-87 -176,-118 -105,-82 -325,-174 -564,-235 -103,-26 -145,-24 -149,7 -4,28 39,56 118,79 91,27 175,71 214,114 64,71 39,121 -64,128 -70,5 -83,-8 -54,-57 17,-29 17,-31 -2,-52 -27,-30 -137,-83 -216,-104 -55,-15 -70,-16 -83,-5 -14,12 -14,15 1,31 9,10 39,33 65,50 27,17 49,35 49,40 0,5 -15,9 -34,9 -35,0 -133,-46 -281,-133 -68,-40 -115,-58 -115,-43 0,27 80,98 210,188 108,75 282,175 333,192 45,15 296,51 412,59 115,8 344,6 399,-3 z M 1650,1613 c 33,-42 89,-167 105,-235 29,-126 15,-213 -55,-334 -22,-38 -45,-92 -53,-121 l -13,-52 -53,24 c -51,24 -53,26 -47,58 9,45 45,130 88,207 21,36 42,88 49,115 10,47 8,58 -30,178 -23,70 -41,141 -41,157 0,38 21,39 50,3 z m -160,-87 c 0,-2 16,-55 35,-117 41,-133 44,-188 14,-244 -18,-33 -89,-134 -120,-169 -6,-7 -54,22 -117,72 l -23,18 62,79 c 84,108 115,180 124,283 4,45 12,82 16,82 5,0 9,-2 9,-4 z m 436,-432 c 17,-72 18,-154 2,-189 -12,-27 -39,-33 -56,-12 -20,25 -42,122 -42,189 0,56 4,72 21,89 21,21 21,21 41,1 11,-11 26,-46 34,-78 z"
       id="path6"
       style="fill:#a20000;fill-opacity:1"
       inkscape:connector-curvature="0" />
  </g>
</svg>
